[
  {
    "id": 1,
    "Kod_hazard": "A1.1",
    "jenis_hazard": "Minyak Alatubah / Bahan Bakar / Bahan Kimia (i. Tumpah)",
    "kod_kawalan": "B1.1",
    "langkah_kawalan": "Memakai KPD termasuk sarung tangan getah."
  },
  {
    "id": 2,
    "Kod_hazard": "A1.2",
    "jenis_hazard": "Minyak Alatubah / Bahan Bakar / Bahan Kimia (ii. Bocor)",
    "kod_kawalan": "B1.2",
    "langkah_kawalan": "Memakai KPD termasuk sarung tangan getah."
  },
  {
    "id": 3,
    "Kod_hazard": "A2",
    "jenis_hazard": "Gas Merbahaya (SF6 / CO2 /  Pyrogen / FM200)",
    "kod_kawalan": "B2",
    "langkah_kawalan": "Semak penunjuk gas. Hentikan kerja jika penunjuk MERAH"
  },
  {
    "id": 4,
    "Kod_hazard": "A3.1",
    "jenis_hazard": "Elektrik (Renjatan Kejutan, Percikan Arka)  (Elektrik)",
    "kod_kawalan": "B3.1",
    "langkah_kawalan": "Permit menjalankan kerja (PMK)"
  },
  {
    "id": 5,
    "Kod_hazard": "A3.2",
    "jenis_hazard": "Elektrik (Renjatan Kejutan, Percikan Arka) (Kerja tanpa permit PMK)",
    "kod_kawalan": "B3.2",
    "langkah_kawalan": "Permit Khas"
  },
  {
    "id": 6,
    "Kod_hazard": "A3.3",
    "jenis_hazard": "Elektrik (Renjatan Kejutan, Percikan Arka) (Pepasangan SAVR)",
    "kod_kawalan": "B3.3",
    "langkah_kawalan": "PMK / Permit Khas / Kerja talian HIDUP"
  },
  {
    "id": 7,
    "Kod_hazard": "A4",
    "jenis_hazard": "Bunyi bising",
    "kod_kawalan": "B4",
    "langkah_kawalan": "Memakai KPD termasuk ear plug."
  },
  {
    "id": 8,
    "Kod_hazard": "A5",
    "jenis_hazard": "Gelap",
    "kod_kawalan": "B5",
    "langkah_kawalan": "Tambah pencahayaan"
  },
  {
    "id": 9,
    "Kod_hazard": "A6.1",
    "jenis_hazard": "Cuaca buruk (Kilat / Ribut / Hujan lebat) (i. SAVR / SAVT )",
    "kod_kawalan": "B6.1",
    "langkah_kawalan": "Maklum kpd Orang Berkebenaran/ Orang Kompeten kontraktor jika terdapat petir hentikan kerja serta-merta dan maklumkan Orang Berkebenaran."
  },
  {
    "id": 10,
    "Kod_hazard": "A6.2",
    "jenis_hazard": "Cuaca buruk (Kilat / Ribut / Hujan lebat)(ii. Pencawang / PPU/ SSU / Kabel)",
    "kod_kawalan": "B6.1",
    "langkah_kawalan": "Maklum kpd Orang Berkebenaran/ Orang Kompeten kontraktor jika terdapat petir hentikan kerja serta-merta dan maklumkan Orang Berkebenaran."
  },
  {
    "id": 11,
    "Kod_hazard": "A7",
    "jenis_hazard": "Tangga tak piawai / Galah Aluminium",
    "kod_kawalan": "B7",
    "langkah_kawalan": "Dilarang mula kerja"
  },
  {
    "id": 12,
    "Kod_hazard": "A8.1",
    "jenis_hazard": "Tapak kerja lembut / berair, tak rata berair (i. Tanam tiang)",
    "kod_kawalan": "B8.1",
    "langkah_kawalan": "Kerja menggunakan wagon"
  },
  {
    "id": 13,
    "Kod_hazard": "A8.2",
    "jenis_hazard": "Tapak kerja lembut / berair, tak rata berair (ii. Kabel)",
    "kod_kawalan": "B8.2",
    "langkah_kawalan": "Pasak kayu menahan tanah"
  },
  {
    "id": 14,
    "Kod_hazard": "A9",
    "jenis_hazard": "Lalulintas",
    "kod_kawalan": "B9",
    "langkah_kawalan": "Pengurusan traffik."
  },
  {
    "id": 15,
    "Kod_hazard": "A10.1",
    "jenis_hazard": "i. Anjing / monyet / dsb.",
    "kod_kawalan": "B10.1",
    "langkah_kawalan": "Bawa batu / kayu dan hubungi Jab. Veterinar"
  },
  {
    "id": 16,
    "Kod_hazard": "A10.2",
    "jenis_hazard": "ii. Harimau / gajah / dsb",
    "kod_kawalan": "B10.2",
    "langkah_kawalan": "Jangan mula kerja. Hubungi Jab. Perhilitan / Tmn Negara."
  },
  {
    "id": 17,
    "Kod_hazard": "A11",
    "jenis_hazard": "Laluan ke pepasangan terhalang",
    "kod_kawalan": "B11",
    "langkah_kawalan": "Alihkan dengan berhati-hati (jika perlu)"
  },
  {
    "id": 18,
    "Kod_hazard": "A12",
    "jenis_hazard": "Permukaan tidak rata",
    "kod_kawalan": "B12",
    "langkah_kawalan": "Tandakan / hadang sementara (kon)"
  },
  {
    "id": 19,
    "Kod_hazard": "A13",
    "jenis_hazard": "Biological (Ular / Penyengat / Tebuan / dsb",
    "kod_kawalan": "B13",
    "langkah_kawalan": "Jangan mula kerja dan hubungi BOMBA."
  },
  {
    "id": 20,
    "Kod_hazard": "A14",
    "jenis_hazard": "Tempat tinggi (Tiang / menara)",
    "kod_kawalan": "B14",
    "langkah_kawalan": "Guna tangga kayu. Ikat pada tiang & Safety Harness / Tali Pinggang Keselamatan)."
  },
  {
    "id": 21,
    "Kod_hazard": "A15",
    "jenis_hazard": "Loading / Unloading",
    "kod_kawalan": "B15",
    "langkah_kawalan": "Semak lacth tali lump PMA SWL, kedudukan jentera / kenderaan / pekerja."
  },
  {
    "id": 22,
    "Kod_hazard": "A16",
    "jenis_hazard": "Bocoran minyak / Lantai licin",
    "kod_kawalan": "B16",
    "langkah_kawalan": "Bersihkan / Asingkan / Cuci."
  },
  {
    "id": 23,
    "Kod_hazard": "A17",
    "jenis_hazard": "Tiang reput / condong / karat",
    "kod_kawalan": "B17",
    "langkah_kawalan": "Cucuk dengan alat keras & tajam"
  },
  {
    "id": 24,
    "Kod_hazard": "A18",
    "jenis_hazard": "Benda tajam / serpihan / debu / habuk",
    "kod_kawalan": "B18",
    "langkah_kawalan": "Bersihkan / asingkan."
  },
  {
    "id": 25,
    "Kod_hazard": "A19",
    "jenis_hazard": "Ruang terkurung",
    "kod_kawalan": "B19",
    "langkah_kawalan": "Permit ruang terkurung dan pekerja kompeten."
  },
  {
    "id": 26,
    "Kod_hazard": "A20",
    "jenis_hazard": "Ergonomik",
    "kod_kawalan": "B20",
    "langkah_kawalan": "Pastikan kedudukan badan (posture) seimbang."
  },
  {
    "id": 27,
    "Kod_hazard": "A21",
    "jenis_hazard": "Trench / main hole / lubang / longkang / parit",
    "kod_kawalan": "B21",
    "langkah_kawalan": "Tutup sementara dan tandakan dengan warning tape."
  },
  {
    "id": 28,
    "Kod_hazard": "A22",
    "jenis_hazard": "Tanah / tebing runtuh",
    "kod_kawalan": "B22",
    "langkah_kawalan": "Pasak kayu (shoring)"
  },
  {
    "id": 29,
    "Kod_hazard": "A23",
    "jenis_hazard": "Orang ganas / gengsterism / samseng",
    "kod_kawalan": "B23",
    "langkah_kawalan": "Hubungi polis dan polis bantuan."
  },
  {
    "id": 30,
    "Kod_hazard": "A24",
    "jenis_hazard": "Barang terjatuh",
    "kod_kawalan": "B24",
    "langkah_kawalan": "Guna tali / awasi pekerja di bawah / pakai KPD."
  },
  {
    "id": 31,
    "Kod_hazard": "A25.1",
    "jenis_hazard": "Penggunaan perancah / scaffholding.(i. Pemasangan dan membuka)",
    "kod_kawalan": "B25.1",
    "langkah_kawalan": "Pengawasan oleh kompeten scaffolder"
  },
  {
    "id": 32,
    "Kod_hazard": "A25.2",
    "jenis_hazard": "Penggunaan perancah / scaffholding.(ii. Pelantar scaffholding tidak piawai)",
    "kod_kawalan": "B25.2",
    "langkah_kawalan": "Jangan mula kerja"
  },
  {
    "id": 33,
    "Kod_hazard": "A26",
    "jenis_hazard": "Loading / unloading & jentera berat",
    "kod_kawalan": "B26",
    "langkah_kawalan": "Semak lacth tali lump PMA SWL, kedudukan jentera / kenderaan / pekerja."
  },
  {
    "id": 34,
    "Kod_hazard": "A27",
    "jenis_hazard": "Pepasangan elektrik terdedah",
    "kod_kawalan": "B27",
    "langkah_kawalan": "Tutup sementara dan hadang dengan warning tape / kon."
  },
  {
    "id": 35,
    "Kod_hazard": "A28",
    "jenis_hazard": "Asap / Wasap / Jerebu",
    "kod_kawalan": "B28",
    "langkah_kawalan": "Pakai penutup hidung dan mulut (mask)"
  },
  {
    "id": 36,
    "Kod_hazard": "A29.1",
    "jenis_hazard": "Laluan tangga ke bangunan (i. Pemegang (hand railling))",
    "kod_kawalan": "B29.1",
    "langkah_kawalan": "Gunakan hand railling semasa menggunakan tangga."
  },
  {
    "id": 37,
    "Kod_hazard": "A29.2",
    "jenis_hazard": "Laluan tangga ke bangunan (ii. Tanpa pemegang (hand railling))",
    "kod_kawalan": "B29.2",
    "langkah_kawalan": "Tandakan sementara dan turun dengan perlahan."
  },
  {
    "id": 38,
    "Kod_hazard": "A29.3",
    "jenis_hazard": "Menggunakan peralatan penukul / tajam (gergaji / pisau / dsb.",
    "kod_kawalan": "B29.3",
    "langkah_kawalan": "Sarung tangan keselamatan dan pastikan kaedah pemotongan."
  }
]